{
  "services": [
    {"id": "1", "routeName":"manage",   "routeLabel":"Website Manager"},
    {"id": "2", "routeName":"route",    "routeLabel":"Place Manager"},
    {"id": "3", "routeName":"route",    "routeLabel":"Agency Manager"},
    {"id": "4", "routeName":"route",    "routeLabel":"Resource Manager"},
    {"id": "5", "routeName":"route",    "routeLabel":"Registered Agent Manager"},
    {"id": "6", "routeName":"route",    "routeLabel":"Product Manager"},
    {"id": "7", "routeName":"route",    "routeLabel":"Document Manager"}
  ]
}