{

    "selectValues" : {

        "us_states" : [
            {"val": "AK", "label": "Alaska"},
            {"val": "AL", "label": "Alabama"},
            {"val": "AZ", "label": "Arizona"},
            {"val": "AS", "label": "Arkansas"},
            {"val": "CA", "label": "California"},
            {"val": "CO", "label": "Colorado"},
            {"val": "CT", "label": "Connecticut"},
            {"val": "DE", "label": "Delaware"},
            {"val": "FL", "label": "Florida"},
            {"val": "GA", "label": "Georgia"},
            {"val": "HI", "label": "Hawaii"},
            {"val": "ID", "label": "Idaho"},
            {"val": "IL", "label": "Illinois"},
            {"val": "IN", "label": "Indiana"},
            {"val": "IO", "label": "Iowa"},
            {"val": "KS", "label": "Kansas"},
            {"val": "KT", "label": "Kentucky"},
            {"val": "LA", "label": "Louisiana"},
            {"val": "ME", "label": "Maine"},
            {"val": "MD", "label": "Maryland"},
            {"val": "MA", "label": "Massachusetts"},
            {"val": "MI", "label": "Michigan"},
            {"val": "MN", "label": "Minnesota"},
            {"val": "MS", "label": "Mississippi"},
            {"val": "MO", "label": "Missouri"},
            {"val": "MT", "label": "Montana"},
            {"val": "NE", "label": "Nebraska"},
            {"val": "NV", "label": "Nevada"},
            {"val": "NH", "label": "New Hampshire"},
            {"val": "NJ", "label": "New Jersey"},
            {"val": "NM", "label": "New Mexico"},
            {"val": "NY", "label": "New York"},
            {"val": "NC", "label": "North Carolina"},
            {"val": "ND", "label": "North Dakota"},
            {"val": "OH", "label": "Ohio"},
            {"val": "OK", "label": "Oklahoma"},
            {"val": "OR", "label": "Oregon"},
            {"val": "PA", "label": "Pennsylvania"},
            {"val": "RI", "label": "Rhode Island"},
            {"val": "SC", "label": "South Carolina"},
            {"val": "SD", "label": "South Dakota"},
            {"val": "TN", "label": "Tennessee"},
            {"val": "TX", "label": "Texas"},
            {"val": "UT", "label": "Utah"},
            {"val": "VT", "label": "Vermont"},
            {"val": "VA", "label": "Virginia"},
            {"val": "WA", "label": "Washington"},
            {"val": "WV", "label": "West Virginia"},
            {"val": "WI", "label": "Wisconsin"},
            {"val": "WY", "label": "Wyoming"},
            {"val": "DC", "label": "Washington D.C."}
        ],

        "ca_provinces" : [
            {"val": "AL", "label": "Alberta"},
            {"val": "BC", "label": "British Columbia"},
            {"val": "MB", "label": "Manitoba"},
            {"val": "NB", "label": "New Brunswick"},
            {"val": "NL", "label": "Newfoundland"},
            {"val": "NS", "label": "Nova Scotia"},
            {"val": "NT", "label": "Northwest Territories"},
            {"val": "NU", "label": "Nunavut"},
            {"val": "ON", "label": "Ontario"},
            {"val": "PE", "label": "Prince Edward Island"},
            {"val": "QC", "label": "Quebec"},
            {"val": "SK", "label": "Saskatchewan"},
            {"val": "YT", "label": "Yukon"}
        ],

        "checkout_methods" : [
            "Authorize.net",
            "Stripe",
            "Other"
        ],

        "renewal_factorings" : [
            {"val": "1",  "label": "1 point"},
            {"val": "2",  "label": "2 points"},
            {"val": "3",  "label": "3 points"},
            {"val": "4",  "label": "4 points"},
            {"val": "5",  "label": "5 points"},
            {"val": "6",  "label": "6 points"},
            {"val": "7",  "label": "7 points"},
            {"val": "8",  "label": "8 points"},
            {"val": "9",  "label": "9 points"},
            {"val": "10", "label": "10 points"}
        ],

        "net_billings" : [
            {"val": "No", "label": "None"},
            {"val": "30", "label": "30 days"},
            {"val": "60", "label": "60 days"},
            {"val": "90", "label": "90 days"}
        ]
    }    
}